{
	"info": {
		"_postman_id": "5bc07f79-30fa-4e5b-aa43-847740e9668b",
		"name": "Sampling Messages",
		"schema": "https://schema.getpostman.com/json/collection/v2.1.0/collection.json"
	},
	"item": [
		{
			"name": "Sampling Message PUT",
			"request": {
				"method": "PUT",
				"header": [
					{
						"key": "Content-Type",
						"value": "application/json"
					}
				],
				"body": {
					"mode": "raw",
					"raw": ""
				},
				"url": {
					"raw": "http://localhost:5000/samplingmessages/test?duration=3600",
					"protocol": "http",
					"host": [
						"localhost"
					],
					"port": "5000",
					"path": [
						"samplingmessages",
						"test"
					],
					"query": [
						{
							"key": "duration",
							"value": "3600"
						}
					]
				}
			},
			"response": []
		},
		{
			"name": "Sampling Messages POST",
			"request": {
				"method": "POST",
				"header": [
					{
						"key": "Content-Type",
						"value": "application/json"
					}
				],
				"body": {
					"mode": "raw",
					"raw": "\"Hello World\""
				},
				"url": {
					"raw": "http://localhost:5000/samplingmessages/test",
					"protocol": "http",
					"host": [
						"localhost"
					],
					"port": "5000",
					"path": [
						"samplingmessages",
						"test"
					]
				}
			},
			"response": []
		},
		{
			"name": "Sampling Messages GET",
			"request": {
				"method": "GET",
				"header": [],
				"body": {},
				"url": {
					"raw": "http://localhost:5000/samplingmessages/test",
					"protocol": "http",
					"host": [
						"localhost"
					],
					"port": "5000",
					"path": [
						"samplingmessages",
						"test"
					]
				}
			},
			"response": []
		},
		{
			"name": "Sampling Messages GET Status",
			"request": {
				"method": "GET",
				"header": [],
				"body": {},
				"url": {
					"raw": "http://localhost:5000/samplingmessages/test/status",
					"protocol": "http",
					"host": [
						"localhost"
					],
					"port": "5000",
					"path": [
						"samplingmessages",
						"test",
						"status"
					]
				}
			},
			"response": []
		},
		{
			"name": "Sampling Messages DELETE Data",
			"request": {
				"method": "DELETE",
				"header": [
					{
						"key": "Content-Type",
						"value": "application/json"
					}
				],
				"body": {
					"mode": "raw",
					"raw": "\"Hello World\""
				},
				"url": {
					"raw": "http://localhost:5000/samplingmessages/test/data",
					"protocol": "http",
					"host": [
						"localhost"
					],
					"port": "5000",
					"path": [
						"samplingmessages",
						"test",
						"data"
					]
				}
			},
			"response": []
		},
		{
			"name": "Sampling Messages DELETE",
			"request": {
				"method": "DELETE",
				"header": [
					{
						"key": "Content-Type",
						"value": "application/json",
						"disabled": true
					}
				],
				"body": {
					"mode": "raw",
					"raw": ""
				},
				"url": {
					"raw": "http://localhost:5000/samplingmessages/test",
					"protocol": "http",
					"host": [
						"localhost"
					],
					"port": "5000",
					"path": [
						"samplingmessages",
						"test"
					]
				}
			},
			"response": []
		},
		{
			"name": "Sampling Message GET Logs",
			"request": {
				"method": "GET",
				"header": [],
				"body": {},
				"url": {
					"raw": "http://localhost:5000/samplingmessages/logs",
					"protocol": "http",
					"host": [
						"localhost"
					],
					"port": "5000",
					"path": [
						"samplingmessages",
						"logs"
					]
				}
			},
			"response": []
		}
	]
}